Chapter 20 Assignments | PLSC 31101: Computational Tools for Social Science
…
3. Group-wise Operations

3.1 Using the merged data and our split-apply-combine strategies, print the total number of articles about women per region.

n_region <- merged %>%
  group_by(region) %>%
  summarise(count = sum(number_articles, na.rm = T))

n_region
#> # A tibble: 7 x 2
#>   region count
#>   <chr>  <dbl>
#> 1 Africa   464
#> 2 Asia    1288
#> 3 EECA     251
#> 4 LA       328
#> 5 MENA     940
#> 6 West    1159
#> # … with 1 more row
…
