Chapter 17 Collecting Data from the Web | PLSC 31101: Computational Tools for Social Science
…
Why didn't your query return 2,000 results?

Identify the user that has used either the hashtag or the string in the greatest number of tweets -- where is this user from?

duke <- search_tweets(
  q = '#DukeEllington OR "Duke Ellington"',
  n = 2000,
  include_rts = FALSE
)

duke %>%
  group_by(user_id, location) %>%
  summarise(n = n()) %>%
  arrange(desc(n))
#> # A tibble: 670 x 3
#> # Groups:   user_id [670]
#>   user_id             location                n
#>   <chr>               <chr>               <int>
#> 1 1260813006          Redmond, WA           115
#> 2 764290456599396353  Rochester, New York    50
#> 3 1048404121206714369 ""                     23
#> 4 768973940605812737  Rochester, NY          17
#> 5 86155540            New York, New York     17
#> 6 578607700           New York City          11
#> #  with 664 more rows
…
